{
  "replace": false,
  "values": [
    "weissrandom:blockmossypressureplate",
    "weissrandom:blockmossypressureplatesilent",
    "weissrandom:blockmossypressureplateinvisible",
    "weissrandom:blockmossypressureplatesilentinvisible"
  ]
}