{
  "conditions": [
    {
      "type": "forge:mod_loaded",
      "modid": "botania"
    }
  ],
  "type": "minecraft:crafting_shaped",
  "pattern": [
    "m",
    "s"
  ],
  "key": {
    "m": {
      "tag": "forge:ingots/elementium"
    },
    "s": {
      "item": "botania:dreamwood_twig"
    }
  },
  "result": {
    "item": "weissrandom:itemdaggerb_elementium"
  }
}