{
  "display": {
    "icon": {
      "item": "weissrandom:blocktinychest"
    },
    "title": {
      "translate": "advancement.weissrandom.envy"
    },
    "description": {
      "translate": "advancement.weissrandom.jealousy"
    },
    "background": "weissrandom:textures/blocks/blockcharcoal.png",
    "show_toast": true,
    "announce_to_chat": true,
    "hidden": true
  },
  "criteria": {
    "dead": {
      "trigger": "weissrandom:envy"
    }
  }
}