{
  "credit": "Made with Blockbench",
  "parent": "block/block",
  "textures": {
    "0": "block/jukebox_side",
    "1": "block/jukebox_top",
    "2": "weissrandom:blocks/platform",
    "particle": "block/jukebox_top"
  },
  "elements": [
    {
      "from": [0, 0, 0],
      "to": [16, 7, 16],
      "faces": {
        "north": {"uv": [0, 9, 16, 16], "texture": "#0"},
        "east": {"uv": [0, 9, 16, 16], "texture": "#0"},
        "south": {"uv": [0, 9, 16, 16], "texture": "#0"},
        "west": {"uv": [0, 9, 16, 16], "texture": "#0"},
        "down": {"uv": [0, 9, 16, 16], "texture": "#0"}
      }
    },
    {
      "from": [0, 7, 0],
      "to": [16, 9, 16],
      "faces": {
        "north": {"uv": [0, 0, 16, 2], "texture": "#0"},
        "east": {"uv": [0, 0, 16, 2], "texture": "#0"},
        "south": {"uv": [0, 0, 16, 2], "texture": "#0"},
        "west": {"uv": [0, 0, 16, 2], "texture": "#0"},
        "up": {"uv": [0, 0, 16, 16], "texture": "#1"}
      }
    },
    {
      "from": [14, 9, 2],
      "to": [15, 13, 3],
      "faces": {
        "north": {"uv": [15, 0, 16, 4], "texture": "#2"},
        "east": {"uv": [15, 0, 16, 4], "texture": "#2"},
        "south": {"uv": [15, 0, 16, 4], "texture": "#2"},
        "west": {"uv": [15, 0, 16, 4], "texture": "#2"},
        "up": {"uv": [15, 0, 16, 1], "texture": "#2"}
      }
    },
    {
      "from": [7, 10, 8],
      "to": [8, 11, 9],
      "faces": {
        "north": {"uv": [0, 15, 1, 16], "texture": "#2"},
        "east": {"uv": [0, 15, 1, 16], "texture": "#2"},
        "south": {"uv": [0, 15, 1, 16], "texture": "#2"},
        "west": {"uv": [0, 15, 1, 16], "texture": "#2"},
        "up": {"uv": [0, 15, 1, 16], "texture": "#2"}
      }
    },
    {
      "from": [3, 9, 3],
      "to": [12, 10, 14],
      "rotation": {"angle": 0, "axis": "y", "origin": [8, 9, 8]},
      "faces": {
        "north": {"uv": [1, 11, 10, 12], "texture": "#2"},
        "east": {"uv": [0, 11, 11, 12], "texture": "#2"},
        "south": {"uv": [1, 11, 10, 12], "texture": "#2"},
        "west": {"uv": [0, 11, 11, 12], "texture": "#2"},
        "up": {"uv": [1, 1, 10, 12], "texture": "#2"}
      }
    },
    {
      "from": [2, 9, 4],
      "to": [3, 10, 13],
      "faces": {
        "north": {"uv": [10, 11, 11, 12], "texture": "#2"},
        "south": {"uv": [0, 11, 1, 12], "texture": "#2"},
        "west": {"uv": [1, 11, 10, 12], "texture": "#2"},
        "up": {"uv": [10, 2, 11, 11], "texture": "#2"}
      }
    },
    {
      "from": [12, 9, 4],
      "to": [13, 10, 13],
      "faces": {
        "north": {"uv": [0, 11, 1, 12], "texture": "#2"},
        "east": {"uv": [1, 11, 10, 12], "texture": "#2"},
        "south": {"uv": [10, 11, 11, 12], "texture": "#2"},
        "up": {"uv": [10, 2, 11, 11], "texture": "#2"}
      }
    },
    {
      "from": [14, 11, 2],
      "to": [15, 12, 10],
      "rotation": {"angle": 0, "axis": "y", "origin": [14, 11, 2]},
      "faces": {
        "north": {"uv": [15, 1, 16, 2], "texture": "#2"},
        "east": {"uv": [8, 15, 16, 16], "texture": "#2"},
        "south": {"uv": [15, 6, 16, 7], "texture": "#2"},
        "west": {"uv": [8, 15, 16, 16], "texture": "#2"},
        "up": {"uv": [15, 7, 16, 15], "texture": "#2"},
        "down": {"uv": [15, 7, 16, 15], "texture": "#2"}
      }
    }
  ]
}