{
  "credit": "Made based on Blockbench",
  "parent": "block/block",
  "textures": {
    "0": "forge:block/iron_ore_overlay",
    "n": "minecraft:block/gravel",
    "particle": "minecraft:block/iron_ore"
  },
  "elements": [
    {
      "from": [0, 0, 0],
      "to": [16, 16, 16],
      "faces": {
        "north": {"uv": [0, 0, 16, 16], "texture": "#n"},
        "east": {"uv": [0, 0, 16, 16], "texture": "#n"},
        "south": {"uv": [0, 0, 16, 16], "texture": "#n"},
        "west": {"uv": [0, 0, 16, 16], "texture": "#n"},
        "up": {"uv": [0, 0, 16, 16], "texture": "#n"},
        "down": {"uv": [0, 0, 16, 16], "texture": "#n"}
      }
    },
    {
      "from": [0, 0, 0],
      "to": [16, 16, 16],
      "faces": {
        "north": {"uv": [0, 0, 16, 16], "texture": "#0"},
        "east": {"uv": [0, 0, 16, 16], "texture": "#0"},
        "south": {"uv": [0, 0, 16, 16], "texture": "#0"},
        "west": {"uv": [0, 0, 16, 16], "texture": "#0"},
        "up": {"uv": [0, 0, 16, 16], "texture": "#0"},
        "down": {"uv": [0, 0, 16, 16], "texture": "#0"}
      }
    }
  ]
}