{
  "conditions": [
    {
      "type": "forge:mod_loaded",
      "modid": "aquaculture"
    }
  ],
  "type": "minecraft:crafting_shaped",
  "pattern": [
    "m",
    "s"
  ],
  "key": {
    "m": {
      "item": "aquaculture:neptunium_ingot"
    },
    "s": {
      "tag": "forge:rods/wooden"
    }
  },
  "result": {
    "item": "weissrandom:itemdaggerneptunium"
  }
}