{
  "type": "minecraft:smoking",
  "ingredient": {
    "item": "weissrandom:itemsaltedbeef"
  },
  "result": {
    "item": "minecraft:cooked_beef",
    "count": 2
  },
  "experience": 0.35,
  "cookingtime": 100
}