{
  "type": "minecraft:crafting_shaped",
  "pattern": [
    "ccc",
    "ccc",
    "ccc"
  ],
  "key": {
    "c": {
      "item": "weissrandom:itemmelonfire"
    }
  },
  "result": {
    "item": "weissrandom:blockmelonfire"
  }
}