{
  "type": "minecraft:crafting_shaped",
  "pattern": [
    "o"
  ],
  "key": {
    "o": {
      "item": "minecraft:chest"
    }
  },
  "result": {
    "item": "weissrandom:blocktinychest",
    "count": 9
  }
}