{
  "type": "minecraft:crafting_shaped",
  "pattern": [
    "plp",
    "p p",
    "ppp"
  ],
  "key": {
    "p": {
      "tag": "wooden_slabs"
    },
    "l": {
      "tag": "wooden_pressure_plates"
    }
  },
  "result": {
    "item": "weissrandom:blockpicklingbarrel"
  }
}