{
  "type": "minecraft:crafting_shaped",
  "pattern": [
    "p",
    "w"
  ],
  "key": {
    "p": {
      "item": "weissrandom:blockmossypressureplate"
    },
    "w": {
      "tag": "minecraft:wool"
    }
  },
  "result": {
    "item": "weissrandom:blockmossypressureplatesilent"
  }
}