{
  "type": "minecraft:crafting_shaped",
  "pattern": [
    "g",
    "p"
  ],
  "key": {
    "p": {
      "item": "weissrandom:blockmossypressureplate"
    },
    "g": {
      "item": "minecraft:glass"
    }
  },
  "result": {
    "item": "weissrandom:blockmossypressureplateinvisible"
  }
}