{
  "type": "minecraft:smelting",
  "ingredient": {
    "item": "quark:bamboo_block"
  },
  "result": "weissrandom:blockbamboocharcoal",
  "experience": 0.4,
  "cookingtime": 400,
  "conditions": [
    {
      "type": "quark:flag",
      "flag": "bamboo_block"
    }
  ]
}