{
  "variants": {
      "facing=north": {
        "model": "weissrandom:item/blockdrawbrigde"
      },
      "facing=south": {
        "model": "weissrandom:item/blockdrawbrigde",
        "y": 180
      },
      "facing=west": {
        "model": "weissrandom:item/blockdrawbrigde",
        "y": 270
      },
      "facing=down": {
        "model": "weissrandom:item/blockdrawbrigde",
        "x": 90
      },
      "facing=up": {
        "model": "weissrandom:item/blockdrawbrigde",
        "x": 270
      },
      "facing=east": {
        "model": "weissrandom:item/blockdrawbrigde",
        "y": 90
      }
  }
}
