{
  "type": "minecraft:crafting_shaped",
  "pattern": [
    "m",
    "s"
  ],
  "key": {
    "m": {
      "tag": "forge:ingots/gold"
    },
    "s": {
      "tag": "forge:rods/wooden"
    }
  },
  "result": {
    "item": "weissrandom:itemdaggergold"
  }
}