{
  "type": "minecraft:crafting_shapeless",
  "ingredients": [
    {
      "item": "minecraft:iron_pickaxe"
    },
    {
      "item": "minecraft:gold_ingot"
    },
    {
      "item": "minecraft:gold_nugget"
    },
    {
      "item": "minecraft:gold_nugget"
    },
    {
      "item": "minecraft:gold_nugget"
    }
  ],
  "result": {
    "item": "weissrandom:itemgildedpickaxe"
  }
}